{
  "_meta": {
    "purpose": "M01 V2 静态视觉验收数据，仅供界面展示，不代表 API 契约",
    "containsPersonalData": false,
    "containsSecrets": false,
    "containsPermissionCodes": false,
    "networkRequests": false
  },
  "userView": {
    "profile": {
      "name": "李明",
      "department": "产品研发中心",
      "initial": "李"
    },
    "summary": [
      {
        "label": "知识库总数",
        "value": "12",
        "trend": "较上周 +2",
        "tone": "blue",
        "icon": "book"
      },
      {
        "label": "本周新增文档",
        "value": "18",
        "trend": "较上周 +18",
        "tone": "green",
        "icon": "file-plus"
      },
      {
        "label": "待我处理",
        "value": "7",
        "trend": "其中紧急 3",
        "tone": "amber",
        "icon": "bell"
      },
      {
        "label": "AI 问答次数",
        "value": "128",
        "trend": "较上周 +24%",
        "tone": "violet",
        "icon": "message"
      }
    ],
    "knowledgeCollections": [
      {
        "name": "产品需求资料库",
        "type": "产品",
        "documents": 84,
        "updated": "10 分钟前",
        "tone": "blue"
      },
      {
        "name": "技术规范资料库",
        "type": "研发",
        "documents": 126,
        "updated": "昨天 17:20",
        "tone": "violet"
      },
      {
        "name": "客户服务知识手册",
        "type": "服务",
        "documents": 96,
        "updated": "周一 14:05",
        "tone": "green"
      },
      {
        "name": "企业制度与流程",
        "type": "管理",
        "documents": 80,
        "updated": "上周五",
        "tone": "amber"
      }
    ],
    "teamActivities": [
      {
        "name": "周宁",
        "initial": "周",
        "action": "更新了",
        "target": "产品需求资料库",
        "time": "8 分钟前",
        "tone": "blue"
      },
      {
        "name": "王珂",
        "initial": "王",
        "action": "上传了 6 份文档到",
        "target": "技术规范资料库",
        "time": "32 分钟前",
        "tone": "violet"
      },
      {
        "name": "陈露",
        "initial": "陈",
        "action": "回答了问题",
        "target": "如何申请测试环境",
        "time": "1 小时前",
        "tone": "green"
      },
      {
        "name": "赵一凡",
        "initial": "赵",
        "action": "完成了知识复核",
        "target": "企业制度与流程",
        "time": "昨天",
        "tone": "amber"
      }
    ]
  },
  "adminView": {
    "profile": {
      "name": "系统管理员",
      "department": "平台治理组",
      "initial": "管"
    },
    "summary": [
      {
        "label": "活跃用户数",
        "value": "1,286",
        "trend": "较昨日 +8.2%",
        "tone": "violet",
        "icon": "users",
        "series": [42, 48, 45, 54, 59, 63, 68]
      },
      {
        "label": "内容总量",
        "value": "28,460",
        "trend": "较上周 +4.8%",
        "tone": "blue",
        "icon": "database",
        "series": [38, 42, 47, 49, 55, 58, 64]
      },
      {
        "label": "任务成功率",
        "value": "98.4%",
        "trend": "过去 24 小时稳定",
        "tone": "green",
        "icon": "workflow",
        "series": [62, 63, 61, 65, 64, 67, 68]
      },
      {
        "label": "待处理事项",
        "value": "7",
        "trend": "其中高优先级 2",
        "tone": "red",
        "icon": "alert",
        "series": [58, 51, 54, 46, 44, 39, 35]
      }
    ],
    "serviceHealth": [
      {
        "name": "文档处理服务",
        "status": "运行正常",
        "metricLabel": "队列长度",
        "metricValue": "3",
        "icon": "files"
      },
      {
        "name": "检索索引服务",
        "status": "运行正常",
        "metricLabel": "平均延迟",
        "metricValue": "42 ms",
        "icon": "network"
      },
      {
        "name": "异步任务服务",
        "status": "运行正常",
        "metricLabel": "成功率",
        "metricValue": "98.4%",
        "icon": "server"
      }
    ],
    "governanceQueue": [
      {
        "name": "失效引用检查",
        "priority": "高",
        "scope": "全部知识库",
        "submitter": "系统巡检",
        "time": "今天 10:20"
      },
      {
        "name": "重复内容合并建议",
        "priority": "中",
        "scope": "技术规范资料库",
        "submitter": "王珂",
        "time": "今天 09:45"
      },
      {
        "name": "公开范围复核",
        "priority": "低",
        "scope": "客户服务知识手册",
        "submitter": "陈露",
        "time": "昨天 16:30"
      }
    ],
    "auditLogs": [
      {
        "time": "2026-07-15 10:42:18",
        "operator": "系统管理员",
        "action": "更新权限",
        "target": "平台治理组",
        "ip": "192.0.2.10",
        "result": "成功"
      },
      {
        "time": "2026-07-15 10:18:03",
        "operator": "王珂",
        "action": "重建索引",
        "target": "技术规范资料库",
        "ip": "198.51.100.24",
        "result": "成功"
      },
      {
        "time": "2026-07-15 09:56:47",
        "operator": "陈露",
        "action": "导出审计报告",
        "target": "2026 年 7 月审计报告",
        "ip": "203.0.113.8",
        "result": "失败"
      },
      {
        "time": "2026-07-15 09:31:22",
        "operator": "系统巡检",
        "action": "内容安全检查",
        "target": "全部知识库",
        "ip": "192.0.2.18",
        "result": "成功"
      }
    ],
    "pagination": {
      "total": 128,
      "page": 1,
      "totalPages": 32
    }
  },
  "stateView": [
    {
      "name": "登录",
      "purpose": "共享登录入口骨架"
    },
    {
      "name": "加载",
      "purpose": "页面与卡片加载反馈"
    },
    {
      "name": "空状态",
      "purpose": "首次使用时提供明确下一步"
    },
    {
      "name": "错误",
      "purpose": "网络失败时允许安全重试"
    },
    {
      "name": "403",
      "purpose": "无访问权限时返回可用路径"
    },
    {
      "name": "404",
      "purpose": "无效地址时返回工作区"
    }
  ]
}
